%YAML 1.1
%TAG !u! tag:unity3d.com,2011:
--- !u!1045 &1
EditorBuildSettings:
  m_ObjectHideFlags: 0
  serializedVersion: 2
  m_Scenes:
  - enabled: 1
    path: Assets/Scenes/Menu.unity
    guid: bfe01d8e76d692e46b0d24cd17d50eaa
  - enabled: 1
    path: Assets/Scenes/Level01.unity
    guid: 2cda990e2423bbf4892e6590ba056729
  - enabled: 1
    path: Assets/Scenes/Level02.unity
    guid: 2a8682372f57fee4fa35808be2c23e0b
  m_configObjects: {}
